[
  {
    "id": "ff08d859-5951-4cc5-a8fb-8abc6fa1a35b",
    "type": 3,
    "lettersId": "94ca9963-1764-4f14-a5a0-1eb60b3c7a39",
    "passThreshold": 24,
    "letterScoringId": "3fa83ae1-644c-4805-ab8a-2ba164fb15e1",
    "instructionId": "13d056f9-d7ff-4d90-a6d1-e052faecaba6",
    "feedbackIds": [
      "600a6585-36aa-48f2-b07c-3ac0a70539bb",
      "d2abcc64-ed64-4d30-9f40-64120c7eb2b3",
      "d7e124f2-1291-4c0e-8516-d0d8fb0afe17",
      "044646bb-7b0a-467d-93a7-136a7be1ce26",
      "17fd43d8-9f02-46f0-92aa-aab3a458ba90",
      "c8874f96-c6ca-4f69-9f21-2ae9645c6bc3"
    ]
  }
]
