[
  {
    "id": "0d76479b-3220-4178-bbd1-1535cdda2894",
    "type": 7,
    "lettersId": "94ca9963-1764-4f14-a5a0-1eb60b3c7a39",
    "lessons": [
      {
        "id": "0c9dc887-5538-49b8-82f9-034359aa19a3",
        "index": 0,
        "name": "First",
        "pages": [
          {
            "id": "46254353-8ac1-4a76-b990-5b8fa060b19f",
            "text": "of",
            "mask": null,
            "instructions": {
              "text": "o, f",
              "audioFile": "https://file-examples.com/wp-content/uploads/2017/11/file_example_MP3_700KB.mp3"
            }
          },
          {
            "id": "adcd4328-c8f0-4329-a4f4-b43d7aadf658",
            "text": "on",
            "mask": "of",
            "instructions": {
              "text": "replace f with n",
              "audioFile": ""
            }
          },
          {
            "id": "0c5a6712-dfc1-4b65-95d2-cffbf3ac2dec",
            "text": "or",
            "mask": "on",
            "instructions": {
              "text": "replace n with r",
              "audioFile": ""
            }
          },
          {
            "id": "e0c4d0e4-17ae-4300-97e5-ed90e39182ca",
            "text": "ore",
            "mask": "or*",
            "instructions": {
              "text": "add e",
              "audioFile": ""
            }
          },
          {
            "id": "6fce35f6-0faf-4a88-a1b9-17a882274b3d",
            "text": "ox",
            "mask": null,
            "instructions": {
              "text": "o, x",
              "audioFile": ""
            }
          },
          {
            "id": "acdad7b4-5ede-4855-b91a-361c4167de79",
            "text": "of",
            "mask": "ox",
            "instructions": {
              "text": "replace x with f",
              "audioFile": ""
            }
          },
          {
            "id": "60bd45a0-eb7d-486d-a033-c1a960ba9827",
            "text": "off",
            "mask": "of*",
            "instructions": {
              "text": "add f",
              "audioFile": ""
            }
          },
          {
            "id": "2d31483b-a821-4c7b-b80b-ce2af75fc233",
            "text": "on",
            "mask": null,
            "instructions": {
              "text": "o, n",
              "audioFile": ""
            }
          },
          {
            "id": "e31c6534-afb3-43ef-8d5d-462554f8dedb",
            "text": "of",
            "mask": "on",
            "instructions": {
              "text": "replace n with f",
              "audioFile": ""
            }
          },
          {
            "id": "7891f2a1-e04e-463b-bbb7-4efc42c5e373",
            "text": "off",
            "mask": "of*",
            "instructions": {
              "text": "add f",
              "audioFile": ""
            }
          },
          {
            "id": "d8a8d64c-a79a-4045-a8ee-de6217543dfb",
            "text": "odd",
            "mask": "off",
            "instructions": {
              "text": "replace f, f with d, d",
              "audioFile": ""
            }
          }
        ]
      },
      {
        "id": "eccfee25-554d-4b79-9ffd-45e8f42713f2",
        "index": 1,
        "name": "Second",
        "pages": [
          {
            "id": "2f9a4ceb-0701-43e0-84b8-9d8c67ab2ed6",
            "text": "am",
            "mask": null,
            "instructions": {
              "text": "a, m",
              "audioFile": ""
            }
          },
          {
            "id": "2915d52f-8da6-4d8c-96d3-152a8c236123",
            "text": "as",
            "mask": "am",
            "instructions": {
              "text": "replace m with s",
              "audioFile": ""
            }
          },
          {
            "id": "6e238200-bf2f-4852-a94d-6ed50223964c",
            "text": "at",
            "mask": "as",
            "instructions": {
              "text": "replace s with t",
              "audioFile": ""
            }
          }
        ]
      }
    ],
    "wordScoringId": "86d65565-3a91-4129-9e6f-c2e9cf8fec5d",
    "exerciseScoring": [
      {
        "id": "7dee0c0d-01a5-4cbb-b293-f55addde60a9",
        "type": 1,
        "points": 5,
        "confidence": 0.2,
        "threshold": 0.8
      },
      {
        "id": "154d6ef8-0d15-435f-bde5-a16adea789ab",
        "type": 2,
        "points": 5,
        "confidence": 0.2,
        "threshold": 0.7
      },
      {
        "id": "7f37a747-7937-4196-adfe-cdf43147b8ac",
        "type": 3,
        "points": 1,
        "confidence": 0,
        "threshold": 0
      }
    ],
    "instructionId": "7a85c493-f115-4dd3-9da1-f681e89bd3ac",
    "feedbackIds": [
      "600a6585-36aa-48f2-b07c-3ac0a70539bb",
      "d2abcc64-ed64-4d30-9f40-64120c7eb2b3",
      "d7e124f2-1291-4c0e-8516-d0d8fb0afe17",
      "044646bb-7b0a-467d-93a7-136a7be1ce26",
      "17fd43d8-9f02-46f0-92aa-aab3a458ba90",
      "c8874f96-c6ca-4f69-9f21-2ae9645c6bc3"
    ]
  }
]
