[
  {
    "id": "9435aee3-91fc-4041-97df-ab13e720be1a",
    "description": "Let's start with a warm up! We will practice the alphabet. To start, take the letter that appears on the screen and drag it to the empty tile. After you move the letter, the microphone will turn on: you should read all the letters that are already on the screen, whether it's 3 letters or 26. The letters will change colour when your read them.\nWhen you've read all of them, the next letter will appear. Do this until you reach the last letter of the alphabet.\nYou will know the microphone is on when a red dot appears on the mic button."
  },
  {
    "id": "d12f1c1a-0959-4053-8e8d-319a03e9fd87",
    "description": "Find the missing letters and place them in the right spot, in alphabetical order. Use the clue button if you're not sure about the next letter."
  },
  {
    "id": "13d056f9-d7ff-4d90-a6d1-e052faecaba6",
    "description": "Let's build the alphabet from scratch. Remember to follow the alphabetical order: starting with A, and ending with Z. "
  },
  {
    "id": "913539b8-425c-4c77-9030-eaa5906442bd",
    "description": "Let's build the Letterboard. Place the letters where they belong on the letterboard in alphabetical order, starting with the letter A. But be careful: the 5 vowels have their own place, on the right side of the board. Ready?"
  },
  {
    "id": "574cf493-f3f5-4a51-90a0-de9ad98373e7",
    "description": "Remember the vowels? Find the 5 vowels, then tap the \"Check\" button to see if you're right. If you selected the correct letters, the microphone will turn on and you will have to read the vowels out loud."
  },
  {
    "id": "02d2d001-b5e4-4b10-8832-c651318d0e55",
    "description": "Press the microphone button when you're ready to start reading the lesson. You need to read the words one by one, when they turn black. If you don't know some of the words, you can ask your parents to read them for you before you press the microphone. Remember to speak loud and clear!"
  },
  {
    "id": "7a85c493-f115-4dd3-9da1-f681e89bd3ac",
    "description": "To build words, simply drag the letters we ask for, from the letterboard to the empty tiles.\nWhen a word is complete, the microphone will turn on: spell out the word you just wrote, then say 'equals' and read the word you spelled. For instance here you would say: \" o, f   equals  of\". The tiles will turn blue one by one when you read out the letters. This means you've completed the word and can move on to the next one!\nIf you need to replace a letter, you can drop another one on top of it.\nTo remove a letter, just tap it.\nMake sure to turn the volume on to hear what letters you should pick."
  },
  {
    "id": "11b3706e-2579-4916-96de-c3fb8c1fe615",
    "description": "We're going to review some words. Press the mic button when you're ready to read what's on the screen."
  }
]