[
  {
    "id": "6688572c-2d27-499e-b6d0-925e4f0ee520",
    "type": 6,
    "lessons": [
      {
        "id": "e17e67db-a976-4028-a945-1ea17c562212",
        "index": 0,
        "name": "odd",
        "pages": [
          {
            "id": "93145c8c-ad9f-49cc-aa5f-76be8bf34ba5",
            "lines": [
              {
                "id": "2fd65359-8d2b-4ce0-923a-c74284ea6882",
                "texts": [
                  {
                    "id": "f0a7912c-0810-4010-889c-0dadc8d55c0d",
                    "text": "odd",
                    "isSentence": false
                  }
                ]
              },
              {
                "id": "ebbc1265-3484-4c68-ab19-485c8f919fc4",
                "texts": [
                  {
                    "id": "50fd28b6-b3ef-4cf3-99fc-bbe268790162",
                    "text": "of",
                    "isSentence": false
                  },
                  {
                    "id": "b03b9f27-5687-4a1f-9f21-ed443a5cc962",
                    "text": "of",
                    "isSentence": false
                  },
                  {
                    "id": "8a7c1b83-3162-4ead-9270-be1d4a16af32",
                    "text": "on",
                    "isSentence": false
                  },
                  {
                    "id": "2f2070e5-b87b-4ba6-8063-782dafff49de",
                    "text": "on",
                    "isSentence": false
                  },
                  {
                    "id": "1cd7ffe5-bed1-4931-9417-f741bcdfdf17",
                    "text": "or",
                    "isSentence": false
                  },
                  {
                    "id": "8fe19b25-31d0-4858-bcd4-de1689bd2dfe",
                    "text": "or",
                    "isSentence": false
                  },
                  {
                    "id": "a96efc2d-7536-4ae9-bc1f-b40625914fad",
                    "text": "ore",
                    "isSentence": false
                  }
                ]
              },
              {
                "id": "d5c421f0-3419-4750-9b55-324a1dda5fdd",
                "texts": [
                  {
                    "id": "bde90fb0-d5de-4d61-a476-4f44a00449cb",
                    "text": "of",
                    "isSentence": false
                  },
                  {
                    "id": "72d9eeff-7f30-48d9-a869-895c41b4208d",
                    "text": "on",
                    "isSentence": false
                  },
                  {
                    "id": "d585b59d-343b-4fb1-a5e6-2119445ff6f1",
                    "text": "or",
                    "isSentence": false
                  },
                  {
                    "id": "9075a48e-98b2-45f9-a74f-dbab28e7c338",
                    "text": "ore",
                    "isSentence": false
                  },
                  {
                    "id": "a1a3f930-369b-4725-bfd5-b7eb6439aeaa",
                    "text": "of",
                    "isSentence": false
                  },
                  {
                    "id": "485ccc13-b123-4906-a477-5016a411c711",
                    "text": "off",
                    "isSentence": false
                  },
                  {
                    "id": "e3966704-2adb-4cf6-8afc-15e65d01000e",
                    "text": "of",
                    "isSentence": false
                  }
                ]
              },
              {
                "id": "1da96bf7-81e9-4cba-918e-d43a651a6d98",
                "texts": [
                  {
                    "id": "613d7434-8aae-487f-92cf-bc142d9759f8",
                    "text": "on",
                    "isSentence": false
                  },
                  {
                    "id": "20aa699e-23f4-4386-85cc-7f58f308ebfb",
                    "text": "or",
                    "isSentence": false
                  },
                  {
                    "id": "6f37787a-71ad-4371-81f0-bb3db197e257",
                    "text": "ore",
                    "isSentence": false
                  },
                  {
                    "id": "0a7978c8-efe4-4f25-b703-7f5591943298",
                    "text": "off",
                    "isSentence": false
                  },
                  {
                    "id": "717ac442-9704-4c7f-a9c0-d4659511ad05",
                    "text": "of",
                    "isSentence": false
                  },
                  {
                    "id": "2e9ec010-a3c4-47cf-a203-3705f1306670",
                    "text": "odd",
                    "isSentence": false
                  },
                  {
                    "id": "dfc41b49-aa20-4375-89f1-033565b5f2fe",
                    "text": "odd",
                    "isSentence": false
                  }
                ]
              }
            ]
          },
          {
            "id": "9869a49b-87c7-4dcf-afde-aac9226e41c2",
            "lines": [
              {
                "id": "ebf31124-9800-45b4-889e-a17ab63b8e01",
                "texts": [
                  {
                    "id": "2feae612-f31a-42dd-a142-921ea8788c00",
                    "text": "or",
                    "isSentence": false
                  },
                  {
                    "id": "616cfd5b-3153-44c3-a669-b34923cd4923",
                    "text": "ore",
                    "isSentence": false
                  },
                  {
                    "id": "494b5052-7920-4d19-bf2a-a1e965fbdf14",
                    "text": "ox",
                    "isSentence": false
                  },
                  {
                    "id": "014aaabe-5706-44b5-91a3-21c0879e5ace",
                    "text": "ox",
                    "isSentence": false
                  },
                  {
                    "id": "17a3d469-f36b-4c51-9e55-58ff4b4df3dd",
                    "text": "ore",
                    "isSentence": false
                  },
                  {
                    "id": "15297254-c4e3-4faa-9ed0-ea25be4312ea",
                    "text": "or",
                    "isSentence": false
                  }
                ]
              },
              {
                "id": "171f8812-678a-44a9-9dcf-4d89148c70ab",
                "texts": [
                  {
                    "id": "b6d695a6-e9f1-4b5e-b60b-fb802025b2fb",
                    "text": "an axe",
                    "isSentence": true
                  },
                  {
                    "id": "7497ca81-c075-40bc-99b9-4b628db5d99e",
                    "text": "ox",
                    "isSentence": false
                  },
                  {
                    "id": "81223c18-4d2f-49c8-aed0-84159dec7fd2",
                    "text": "odd",
                    "isSentence": false
                  },
                  {
                    "id": "31850182-05ec-405f-802d-bffe7d3b2da7",
                    "text": "off",
                    "isSentence": false
                  },
                  {
                    "id": "9cba130c-21eb-4b40-b7ea-d32ba93a7430",
                    "text": "of",
                    "isSentence": false
                  },
                  {
                    "id": "751b5a20-dca8-4ba5-8c2d-839f1756dd65",
                    "text": "an",
                    "isSentence": false
                  }
                ]
              }
            ]
          }
        ]
      },
      {
        "id": "36e42a67-af8d-4826-b1a4-81b8e2d9df14",
        "index": 1,
        "name": "Al, an axe",
        "pages": [
          {
            "id": "540b8675-6448-41fb-8bce-73f5ac53a8eb",
            "lines": [
              {
                "id": "ab375604-25e6-4141-a67e-fff5aebaa28c",
                "texts": [
                  {
                    "id": "03964167-1070-4e2f-9afd-eb21d754fc2a",
                    "text": "Al",
                    "isSentence": false
                  },
                  {
                    "id": "79d270b1-20c7-410d-9982-7c973c14b6b9",
                    "text": "an axe",
                    "isSentence": true
                  }
                ]
              },
              {
                "id": "9c9670be-14f5-4539-8abd-95236bfd3eec",
                "texts": [
                  {
                    "id": "a34a659b-26e5-4763-88d8-7686193bc670",
                    "text": "Ann",
                    "isSentence": false
                  },
                  {
                    "id": "1512eb81-7c85-47c6-8f29-f7e923ca5a26",
                    "text": "Ann",
                    "isSentence": false
                  },
                  {
                    "id": "53cc88fe-e808-4bbc-a94a-1e6dabcb64a2",
                    "text": "an asp",
                    "isSentence": true
                  },
                  {
                    "id": "8330f486-c025-43af-93fa-b649beb640d0",
                    "text": "am",
                    "isSentence": false
                  },
                  {
                    "id": "0d891784-1d24-49a8-93f4-e87291b9928a",
                    "text": "as",
                    "isSentence": false
                  },
                  {
                    "id": "d2b46110-99c0-45c0-9a5d-e8499d3373ea",
                    "text": "as",
                    "isSentence": false
                  },
                  {
                    "id": "43835804-b3bb-4bc7-af2c-a15720ca6ba3",
                    "text": "at",
                    "isSentence": false
                  },
                  {
                    "id": "f2a0b529-58a7-422e-8668-9df3cc2c95f3",
                    "text": "at",
                    "isSentence": false
                  }
                ]
              }
            ]
          }
        ]
      }
    ],
    "wordScoringId": "86d65565-3a91-4129-9e6f-c2e9cf8fec5d",
    "exerciseScoring": [
      {
        "id": "5a881c72-e2d0-4064-84c8-12b4a43bd221",
        "type": 1,
        "points": 5,
        "threshold": 0.75
      },
      {
        "id": "a3429d05-e050-4855-8a9c-5b19da3cff7b",
        "type": 2,
        "points": 5,
        "threshold": 0.6
      },
      {
        "id": "770c7d44-c18b-4521-8216-1a11a6ce2ed3",
        "type": 3,
        "points": 1,
        "threshold": 0
      }
    ],
    "instructionId": "02d2d001-b5e4-4b10-8832-c651318d0e55",
    "feedbackIds": [
      "600a6585-36aa-48f2-b07c-3ac0a70539bb",
      "d2abcc64-ed64-4d30-9f40-64120c7eb2b3",
      "d7e124f2-1291-4c0e-8516-d0d8fb0afe17",
      "044646bb-7b0a-467d-93a7-136a7be1ce26",
      "17fd43d8-9f02-46f0-92aa-aab3a458ba90",
      "c8874f96-c6ca-4f69-9f21-2ae9645c6bc3"
    ]
  }
]
