[
  {
    "id": "18a4dd49-c7d3-4295-9cc4-0baeba5800fe",
    "type": 8,
    "pages": [
      {
        "id": "0ca026eb-8f0b-431d-afd8-e7c61feb594e",
        "text": "upper",
        "isSentence": false
      },
      {
        "id": "0ca026eb-8f0b-431d-afd8-e7c61feb594e",
        "text": "odd",
        "isSentence": false
      },
      {
        "id": "0ca026eb-8f0b-431d-afd8-e7c61feb594e",
        "text": "an egg",
        "isSentence": true
      }
    ],
    "wordScoringId": "86d65565-3a91-4129-9e6f-c2e9cf8fec5d",
    "exerciseScoring": [
      {
        "id": "258d9a92-3495-44b5-a680-9edb203fda8e",
        "type": 1,
        "points": 5,
        "confidence": 0.2
      },
      {
        "id": "d33ab9d9-5386-425d-91e3-2bf9db600a00",
        "type": 2,
        "points": 5,
        "confidence": 0.02
      },
      {
        "id": "b3bc73b4-8994-4b35-8c1e-919e19b81a7d",
        "type": 3,
        "points": 1,
        "confidence": 0
      }
    ],
    "instructionId": "11b3706e-2579-4916-96de-c3fb8c1fe615",
    "feedbackIds": [
      "600a6585-36aa-48f2-b07c-3ac0a70539bb",
      "d2abcc64-ed64-4d30-9f40-64120c7eb2b3",
      "d7e124f2-1291-4c0e-8516-d0d8fb0afe17",
      "044646bb-7b0a-467d-93a7-136a7be1ce26",
      "17fd43d8-9f02-46f0-92aa-aab3a458ba90",
      "c8874f96-c6ca-4f69-9f21-2ae9645c6bc3"
    ]
  }
]
