[
  {
    "id": "3fa83ae1-644c-4805-ab8a-2ba164fb15e1",
    "steps": [
      {
        "type": 1,
        "points": 10,
        "confidence": 0.6
      },
      {
        "type": 2,
        "points": 5,
        "confidence": 0.4
      },
      {
        "type": 3,
        "points": 1,
        "confidence": 0
      }
    ]
  }
]